ABAN,2561
ADANIPORTS,3861249
AMBUJACEM,325121
APOLLOTYRE,41729
ARVIND,49409
AXISBANK,1510401
BAJAJELEC,3848705
BALRAMCHIN,87297
BANKBARODA,1195009
BHARTIARTL,2714625
CADILAHC,2029825
CAIRN,3580417
CANBK,2763265
CASTROLIND,320001
CHENNPETRO,524545
COALINDIA,5215745
DABUR,197633
DHFL,215553
DISHMAN,2916865
ENGINERSIN,1256193
ESCORTS,245249
EVEREADY,3016193
EXIDEIND,173057
FORTIS,3735553
GAIL,1207553
HAVELLS,2513665
HEXAWARE,2747905
HINDALCO,348929
HINDPETRO,359937
HINDZINC,364545
ICICIBANK,1270529
ICIL,3068673
INDIANB,3663105
INFRATEL,7458561
IOC,415745
IRB,3920129
ITC,424961
JETAIRWAYS,2997505
JSWSTEEL,3001089
JUSTDIAL,7670273
LICHSGFIN,511233
MARICO,1041153
MINDTREE,3675137
MOTHERSUMI,1076225
MUTHOOTFIN,6054401
NBCC,8042241
NMDC,3924993
NTPC,2977281
OIL,4464129
ONGC,633601
PETRONET,2905857
RECLTD,3930881
RELCAPITAL,737793
SBIN,779521
SUNTV,3431425
TATACHEM,871681
TATACOMM,952577
TATAMOTORS,884737
TATAMTRDVR,4343041
TATASTEEL,895745
TECHM,3465729
TITAN,897537
TVSMOTOR,2170625
VEDL,784129
VOLTAS,951809
WIPRO,969473
ZEEL,975873